"메인 키","명칭","행정 시","행정 구","행정 동"
"BE_LiST37-0001","JW Marriott Seoul","Seoul","Seocho-gu","Banpo4-dong"
"BE_LiST37-0002","MEASEOUL","Seoul","Yeongdeungpo-gu","Yeoui-dong"
"BE_LiST37-0003","W Seoul Walkerhill","Seoul","Gwangjin-gu","Gwangjang-dong"
"BE_LiST37-0004","Grand Ambassador Seoul","Seoul","Jung-gu","Jangchung-dong"
"BE_LiST37-0005","Grand Intercontinental Seoul Parnas","Seoul","Gangnam-gu","Samseong1-dong"
"BE_LiST37-0006","Grand Hyatt Seoul","Seoul","Yongsan-gu","Hannam-dong"
"BE_LiST37-0007","Grand Hilton Seoul","Seoul","Seodaemun-gu","Hongeun2-dong"
"BE_LiST37-0008","Novotal Ambassador Seoul Gangnam","Seoul","Gangnam-gu","Yeoksam1-dong"
"BE_LiST37-0009","Lotte City Hotel Gimpo Airport","Seoul","Gangseo-gu","Banghwa2-dong"
"BE_LiST37-0010","Lotte Hotel","Seoul","Jung-gu","Myeong-dong"
"BE_LiST37-0011","Lotte Hotels","Seoul","Songpa-gu","Jamsil3-dong"
"BE_LiST37-0012","Renaissance Seoul Hotel","Seoul","Gangnam-gu","Yeoksam1-dong"
"BE_LiST37-0013","Mayfield Hotels","Seoul","Gangseo-gu","Balsan1-dong"
"BE_LiST37-0014","Millennium Seoul Hilton","Seoul","Jung-gu","Hoehyeon-dong"
"BE_LiST37-0015","Banyan Tree Club & Spa Seoul","Seoul","Jung-gu","Jangchung-dong"
"BE_LiST37-0016","The Palace Seoul","Seoul","Seocho-gu","Banpo4-dong"
"BE_LiST37-0017","Sheraton Grande Walkerhill","Seoul","Gwangjin-gu","Gwangjang-dong"
"BE_LiST37-0018","Sheraton Seoul D Cube City Hotel","Seoul","Guro-gu","Sindorim-dong"
"BE_LiST37-0019","The Shilla Hotel","Seoul","Jung-gu","Jangchung-dong"
"BE_LiST37-0020","Ellui Hotel","Seoul","Gangnam-gu","Cheongdam-dong"
"BE_LiST37-0021","The Westin Chosun Hotel","Seoul","Jung-gu","Sogong-dong"
"BE_LiST37-0022","InterContinental Seoul COEX","Seoul","Gangnam-gu","Samseong1-dong"
"BE_LiST37-0023","Imperial Palace","Seoul","Gangnam-gu","Nonhyeon2-dong"
"BE_LiST37-0024","Conrad Seoul","Seoul","Yeongdeungpo-gu","Yeoui-dong"
"BE_LiST37-0025","Park Hyatt Seoul","Seoul","Gangnam-gu","Daechi2-dong"
"BE_LiST37-0026","The Plaza Hotel","Seoul","Jung-gu","Sogong-dong"
"BE_LiST37-0027","The Ritz-Carlton Seoul","Seoul","Gangnam-gu","Yeoksam1-dong"
"BE_LiST37-0028","Novotal Ambassador Doksan","Seoul","Geumcheon-gu","Doksan4-dong"
"BE_LiST37-0029","Ramada Seoul","Seoul","Gangnam-gu","Samseong2-dong"
"BE_LiST37-0030","Ramada Hotel & Suites","Seoul","Jung-gu","Sogong-dong"
"BE_LiST37-0031","Lexington Hotels","Seoul","Yeongdeungpo-gu","Yeoui-dong"
"BE_LiST37-0032","Lotte City Hotel Mapo","Seoul","Mapo-gu","Ahyeon-dong"
"BE_LiST37-0033","Best Western Gang Nam Hotel","Seoul","Gangnam-gu","Nonhyeon1-dong"
"BE_LiST37-0034","Best Western Niagara Hotel","Seoul","Gangseo-gu","Yeomchang-dong"
"BE_LiST37-0035","Best Western Seoul Garden Hotel","Seoul","Mapo-gu","Dohwa-dong"
"BE_LiST37-0036","Sejong Hotel","Seoul","Jung-gu","Myeong-dong"
"BE_LiST37-0037","Stanford Hotel Seoul","Seoul","Mapo-gu","Sangam-dong"
"BE_LiST37-0038","Hotel Acacia","Seoul","Jung-gu","Euljiro-dong"
"BE_LiST37-0039","Capital Hotels","Seoul","Yongsan-gu","Seobinggo-dong"
"BE_LiST37-0040","Koreana Hotel","Seoul","Jung-gu","Myeong-dong"
"BE_LiST37-0041","Pacific Hotel","Seoul","Jung-gu","Myeong-dong"
"BE_LiST37-0042","Hotel Prima","Seoul","Gangnam-gu","Cheongdam-dong"
"BE_LiST37-0043","Hotel Riviera","Seoul","Gangnam-gu","Cheongdam-dong"
"BE_LiST37-0044","President Hotel","Seoul","Jung-gu","Myeong-dong"
"BE_LiST37-0045","Hotel PJ","Seoul","Jung-gu","Gwanghui-dong"
"BE_LiST37-0046","Holiday Inn Seoul Seongbuk","Seoul","Seongbuk-gu","Jongam-dong"
"BE_LiST37-0047","Gyeongnam Tour Hotels","Seoul","Dongdaemun-gu","Jangan2-dong"
"BE_LiST37-0048","Seoul Noblesse Hotel","Seoul","Nowon-gu","Sanggye6.7-dong"
"BE_LiST37-0049","Hotel Nostalgia","Seoul","Gangseo-gu","Hwagok6-dong"
"BE_LiST37-0050","Lake Hotel","Seoul","Songpa-gu","Seokchon-dong"
"BE_LiST37-0051","Hotel River Park","Seoul","Gangseo-gu","Yeomchang-dong"
"BE_LiST37-0052","Metro Hotel","Seoul","Jung-gu","Myeong-dong"
"BE_LiST37-0053","Victoria Hotels","Seoul","Gangbuk-gu","Songjung-dong"
"BE_LiST37-0054","Savoy Hotel","Seoul","Jung-gu","Myeong-dong"
"BE_LiST37-0055","Hotel Samjung","Seoul","Gangnam-gu","Yeoksam1-dong"
"BE_LiST37-0056","Seoul Rex Hotel","Seoul","Jung-gu","Hoehyeon-dong"
"BE_LiST37-0057","Astoria Hotel","Seoul","Jung-gu","Pil-dong"
"BE_LiST37-0058","Ambassador Hotel","Seoul","Gangnam-gu","Daechi4-dong"
"BE_LiST37-0059","Yoido Hotel","Seoul","Yeongdeungpo-gu","Yeoui-dong"
"BE_LiST37-0060","Young Dong Hotel","Seoul","Gangnam-gu","Nonhyeon1-dong"
"BE_LiST37-0061","California Tourist Hotel","Seoul","Songpa-gu","Garakbon-dong"
"BE_LiST37-0062","Hotel Crown Itaewon","Seoul","Yongsan-gu","Itaewon1-dong"
"BE_LiST37-0063","Hotel Crown Insadong","Seoul","Jongno-gu","Jongno1.2.3.4ga-dong"
"BE_LiST37-0064","Tria Hotel","Seoul","Gangnam-gu","Yeoksam1-dong"
"BE_LiST37-0065","Hotel Popgreen","Seoul","Gangnam-gu","Apgujeong-dong"
"BE_LiST37-0066","Hotel Prince Seoul","Seoul","Jung-gu","Myeong-dong"
"BE_LiST37-0067","Hankang Hotel","Seoul","Gwangjin-gu","Gwangjang-dong"
"BE_LiST37-0068","Hamilton Hotel","Seoul","Yongsan-gu","Itaewon1-dong"
"BE_LiST37-0069","Hotel Green World","Seoul","Gangseo-gu","Deungchon2-dong"
"BE_LiST37-0070","New Regent Hotels","Seoul","Gangseo-gu","Hwagok6-dong"
"BE_LiST37-0071","New Boolim Hotel","Seoul","Dongdaemun-gu","Jeonnong1-dong"
"BE_LiST37-0072","Hotel Babylon","Seoul","Seocho-gu","Jamwon-dong"
"BE_LiST37-0073","Brown Hotel","Seoul","Seongbuk-gu","Bomun-dong"
"BE_LiST37-0074","Biwon Hotel","Seoul","Jongno-gu","Jongno1.2.3.4ga-dong"
"BE_LiST37-0075","Jam Sil Tourist Hotel","Seoul","Songpa-gu","Jamsilbon-dong"
"BE_LiST37-0076","Friend Hotel","Seoul","Seocho-gu","Seocho1-dong"
"BE_LiST37-0077","Hotel R","Seoul","Yeongdeungpo-gu","Yeongdeungpo-dong"
"BE_LiST37-0078","Hotel DODO","Seoul","Yeongdeungpo-gu","Yeongdeungpo-dong"
"BE_LiST37-0079","Hotel Airport Gimpo","Seoul","Gangseo-gu","Gonghang-dong"
"BE_LiST37-0080","CF Hotel","Seoul","Gangnam-gu","Yeoksam2-dong"
"BE_LiST37-0081","JJ Hotel","Seoul","Seongdong-gu","Yongdap-dong"
"BE_LiST37-0082","The-K Seoul Hotel","Seoul","Seocho-gu","Yangjae2-dong"
"BE_LiST37-0083","Gaya Tourism Hotels","Seoul","Yongsan-gu","Namyeong-dong"
"BE_LiST37-0084","Gogoong Hotel","Seoul","Jongno-gu","Jongno1.2.3.4ga-dong"
"BE_LiST37-0085","Hotel Green Grass","Seoul","Gangnam-gu","Samseong2-dong"
"BE_LiST37-0086","Namgyeong","Seoul","Mapo-gu","Hapjeong-dong"
"BE_LiST37-0087","Noblesse Apt.","Seoul","Gangnam-gu","Yeoksam1-dong"
"BE_LiST37-0088","Nox Hotel","Seoul","Gangnam-gu","Yeoksam1-dong"
"BE_LiST37-0089","New Oriental Hotel","Seoul","Jung-gu","Hoehyeon-dong"
"BE_LiST37-0090","New Chonji Hotel","Seoul","Jung-gu","Euljiro-dong"
"BE_LiST37-0091","New Hilltop Tourist Hotel","Seoul","Gangnam-gu","Nonhyeon1-dong"
"BE_LiST37-0092","The Riverside Hotel","Seoul","Seocho-gu","Jamwon-dong"
"BE_LiST37-0093","DS이","Seoul","Jung-gu","Jungnim-dong"
"BE_LiST37-0094","LaNuit Hotel","Seoul","Mapo-gu","Daheung-dong"
"BE_LiST37-0095","La Mir Hotel","Seoul","Gangnam-gu","Yeoksam1-dong"
"BE_LiST37-0096","Tourist Hotel","Seoul","Seocho-gu","Seocho3-dong"
"BE_LiST37-0097","Raja Hotels","Seoul","Songpa-gu","Bangi2-dong"
"BE_LiST37-0098","Rainbow Hotel","Seoul","Yongsan-gu","Namyeong-dong"
"BE_LiST37-0099","Lex Tourist Hotel","Seoul","Gangnam-gu","Nonhyeon1-dong"
"BE_LiST37-0100","Lexy Hotel","Seoul","Gangnam-gu","Yeoksam1-dong"
"BE_LiST37-0101","Royal Hotel Seoul","Seoul","Jung-gu","Myeong-dong"
"BE_LiST37-0102","Ritz Hotels","Seoul","Nowon-gu","Sanggye6.7-dong"
"BE_LiST37-0103","Mai Tourist Hotel","Seoul","Jungnang-gu","Sangbong2-dong"
"BE_LiST37-0104","Major Hotel","Seoul","Gangnam-gu","Daechi4-dong"
"BE_LiST37-0105","Vabien Suite 1 Residence","Seoul","Jung-gu","Sogong-dong"
"BE_LiST37-0106","Bali Hotel","Seoul","Gangnam-gu","Samseong2-dong"
"BE_LiST37-0107","Bali Hotel","Seoul","Gangdong-gu","Gil-dong"
"BE_LiST37-0108","Venezia Hotel","Seoul","Gangnam-gu","Yeoksam1-dong"
"BE_LiST37-0109","Bellagio Hotels","Seoul","Eunpyeong-gu","Bulgwang1-dong"
"BE_LiST37-0110","Samho Tourist Hotel","Seoul","Jongno-gu","Changsin1-dong"
"BE_LiST37-0111","Seoul Hotels","Seoul","Yeongdeungpo-gu","Yeongdeungpo-dong"
"BE_LiST37-0112","Seoho Hotels","Seoul","Seocho-gu","Seocho4-dong"
"BE_LiST37-0113","Tourist Hotel","Seoul","Dobong-gu","Ssangmun3-dong"
"BE_LiST37-0114","Hotel Star","Seoul","Gangnam-gu","Yeoksam1-dong"
"BE_LiST37-0115","Cinema Hotels","Seoul","Seongbuk-gu","Dongseon-dong"
"BE_LiST37-0116","Cinema Hotels","Seoul","Gwanak-gu","Cheongnyong-dong"
"BE_LiST37-0117","Yeong Bin Gwan of The Shilla Seoul","Seoul","Jung-gu","Jangchung-dong"
"BE_LiST37-0118","Sunbee Hotel","Seoul","Jongno-gu","Jongno1.2.3.4ga-dong"
"BE_LiST37-0119","Hotel Argo","Seoul","Gangdong-gu","Gil-dong"
"BE_LiST37-0120","Amare Hotel","Seoul","Gangnam-gu","Yeoksam2-dong"
"BE_LiST37-0121","Tourist Hotel","Seoul","Gangnam-gu","Yeoksam2-dong"
"BE_LiST37-0122","Academy House Hotel","Seoul","Gangbuk-gu","Insu-dong"
"BE_LiST37-0123","Hotel Elleinn","Seoul","Yongsan-gu","Namyeong-dong"
"BE_LiST37-0124","M.Biz Hotel","Seoul","Gangnam-gu","Samseong2-dong"
"BE_LiST37-0125","M Hotel","Seoul","Mapo-gu","Daheung-dong"
"BE_LiST37-0126","Hotel Money","Seoul","Songpa-gu","Bangi2-dong"
"BE_LiST37-0127","Tourist Hotel","Seoul","Jung-gu","Gwanghui-dong"
"BE_LiST37-0128","Olympic Parktel","Seoul","Songpa-gu","Oryun-dong"
"BE_LiST37-0129","Yooyang Hotel","Seoul","Mapo-gu","Seogyo-dong"
"BE_LiST37-0130","Yuwon Hotel","Seoul","Seocho-gu","Seocho3-dong"
"BE_LiST37-0131","Isabel Hotel","Seoul","Seocho-gu","Seocho3-dong"
"BE_LiST37-0132","Giant Hotel","Seoul","Gangnam-gu","Samseong2-dong"
"BE_LiST37-0133","Jooyoung 21","Seoul","Yongsan-gu","Hannam-dong"
"BE_LiST37-0134","Junibin Boutique Hotel","Seoul","Mapo-gu","Hapjeong-dong"
"BE_LiST37-0135","Calton Hotels","Seoul","Gangseo-gu","Hwagok6-dong"
"BE_LiST37-0136","Korea Tourist Hotel","Seoul","Gangdong-gu","Seongnae2-dong"
"BE_LiST37-0137","Korea Hotels","Seoul","Songpa-gu","Samjeon-dong"
"BE_LiST37-0138","Kobos Hotel","Seoul","Yeongdeungpo-gu","Yeoui-dong"
"BE_LiST37-0139","Theme Hotel","Seoul","Gangseo-gu","Hwagokbon-dong"
"BE_LiST37-0140","Theme Hotel","Seoul","Jungnang-gu","Sangbong2-dong"
"BE_LiST37-0141","Toyoko Inn","Seoul","Jung-gu","Gwanghui-dong"
"BE_LiST37-0142","Tomji Motel","Seoul","Songpa-gu","Bangi2-dong"
"BE_LiST37-0143","Tomji Hotel","Seoul","Jongno-gu","Jongno1.2.3.4ga-dong"
"BE_LiST37-0144","TiTi","Seoul","Gangnam-gu","Samseong1-dong"
"BE_LiST37-0145","Tiffany","Seoul","Gangseo-gu","Balsan1-dong"
"BE_LiST37-0146","Princess Hotel","Seoul","Gangnam-gu","Apgujeong-dong"
"BE_LiST37-0147","Flower Hotel","Seoul","Dongdaemun-gu","Cheongnyangni-dong"
"BE_LiST37-0148","Pin Hotel","Seoul","Gwangjin-gu","Gunja-dong"
"BE_LiST37-0149","Hotel G","Seoul","Gangnam-gu","Nonhyeon1-dong"
"BE_LiST37-0150","Hotel La Casa","Seoul","Gangnam-gu","Sinsa-dong"
"BE_LiST37-0151","Hotel Mind","Seoul","Geumcheon-gu","Gasan-dong"
"BE_LiST37-0152","Hotel L & S","Seoul","Jungnang-gu","Mangubon-dong"
"BE_LiST37-0153","Hotel KP","Seoul","Dongdaemun-gu","Hwigyeong1-dong"
"BE_LiST37-0154","Hotel Tiffany","Seoul","Gangnam-gu","Cheongdam-dong"
"BE_LiST37-0155","CF Hotel","Seoul","Songpa-gu","Bangi2-dong"
"BE_LiST37-0156","Gallery Hotel","Seoul","Eunpyeong-gu","Nokbeon-dong"
"BE_LiST37-0157","Seoul Partners House","Seoul","Yongsan-gu","Hannam-dong"
"BE_LiST37-0158","Saerim Hotel","Seoul","Jongno-gu","Jongno1.2.3.4ga-dong"
"BE_LiST37-0159","Jelly Hotel","Seoul","Gangnam-gu","Yeoksam1-dong"